{
  "apiVersion": "v1",
  "kind": "List",
  "items": [
    {
      "apiVersion": "apps.openshift.io/v1",
      "kind": "DeploymentConfig",
      "metadata": {
        "name": "create-react-app",
        "namespace": "poc-auspost-camunda-to-rhpam",
        "labels": {
          "project": "create-react-app",
          "version": "4.0.0",
          "provider": "nodeshift",
          "app": "create-react-app",
          "app.kubernetes.io/name": "nodejs",
          "app.kubernetes.io/component": "create-react-app",
          "app.kubernetes.io/instance": "create-react-app",
          "app.openshift.io/runtime": "nodejs"
        },
        "annotations": {
          "nodeshift/git-branch": "master",
          "nodeshift/git-commit": "ec3309456eb2edd0c6d4215d6da165e66ad2f8b5"
        }
      },
      "spec": {
        "replicas": 1,
        "revisionHistoryLimit": 2,
        "selector": {
          "app": "create-react-app",
          "project": "create-react-app",
          "provider": "nodeshift"
        },
        "triggers": [
          {
            "type": "ConfigChange"
          },
          {
            "type": "ImageChange",
            "imageChangeParams": {
              "automatic": true,
              "containerNames": [
                "create-react-app"
              ],
              "from": {
                "kind": "ImageStreamTag",
                "namespace": "poc-auspost-camunda-to-rhpam",
                "name": "create-react-app:latest"
              }
            }
          }
        ],
        "template": {
          "metadata": {
            "labels": {
              "project": "create-react-app",
              "version": "4.0.0",
              "provider": "nodeshift",
              "app": "create-react-app"
            },
            "annotations": {
              "nodeshift/git-branch": "master",
              "nodeshift/git-commit": "ec3309456eb2edd0c6d4215d6da165e66ad2f8b5"
            }
          },
          "spec": {
            "containers": [
              {
                "image": "create-react-app",
                "name": "create-react-app",
                "securityContext": {
                  "privileged": false
                },
                "ports": [
                  {
                    "containerPort": 8080,
                    "name": "http",
                    "protocol": "TCP"
                  }
                ],
                "env": []
              }
            ]
          }
        }
      }
    },
    {
      "apiVersion": "v1",
      "kind": "Service",
      "spec": {
        "selector": {
          "project": "create-react-app",
          "provider": "nodeshift"
        },
        "ports": [
          {
            "protocol": "TCP",
            "port": 8080,
            "targetPort": 8080,
            "name": "http"
          }
        ],
        "type": "ClusterIP"
      },
      "metadata": {
        "name": "create-react-app",
        "namespace": "poc-auspost-camunda-to-rhpam",
        "labels": {
          "project": "create-react-app",
          "version": "4.0.0",
          "provider": "nodeshift",
          "app.kubernetes.io/name": "nodejs",
          "app.kubernetes.io/component": "create-react-app",
          "app.kubernetes.io/instance": "create-react-app",
          "app.openshift.io/runtime": "nodejs"
        },
        "annotations": {
          "nodeshift/git-branch": "master",
          "nodeshift/git-commit": "ec3309456eb2edd0c6d4215d6da165e66ad2f8b5"
        }
      }
    },
    {
      "apiVersion": "route.openshift.io/v1",
      "kind": "Route",
      "spec": {
        "to": {
          "kind": "Service",
          "name": "create-react-app"
        },
        "port": {
          "targetPort": 8080
        }
      },
      "metadata": {
        "name": "create-react-app",
        "labels": {
          "project": "create-react-app",
          "version": "4.0.0",
          "provider": "nodeshift",
          "app.kubernetes.io/name": "nodejs",
          "app.kubernetes.io/component": "create-react-app",
          "app.kubernetes.io/instance": "create-react-app",
          "app.openshift.io/runtime": "nodejs"
        }
      }
    }
  ]
}